05_fsm_traffic_light/vcd/fsm_traffic_light.vcd
$date
	Mon Jul  1 18:02:26 2024
$end
$version
	Icarus Verilog
$end
$timescale
	1s
$end
$scope module fsm_traffic_light_tb $end
$var wire 2 ! o_LB [1:0] $end
$var wire 2 " o_LA [1:0] $end
$var reg 128 # L_State [127:0] $end
$var reg 128 $ M_State [127:0] $end
$var reg 128 % color_LA [127:0] $end
$var reg 128 & color_LB [127:0] $end
$var reg 1 ' i_P $end
$var reg 1 ( i_R $end
$var reg 1 ) i_TA $end
$var reg 1 * i_TB $end
$var reg 1 + i_clk $end
$var reg 1 , i_rstn $end
$var reg 256 - vcd_file [255:0] $end
$var integer 32 . i [31:0] $end
$scope module u_fsm_traffic_light $end
$var wire 1 ' i_P $end
$var wire 1 ( i_R $end
$var wire 1 ) i_TA $end
$var wire 1 * i_TB $end
$var wire 1 + i_clk $end
$var wire 1 , i_rstn $end
$var wire 1 / M $end
$var reg 3 0 c_state_L [2:0] $end
$var reg 2 1 c_state_M [1:0] $end
$var reg 3 2 n_state_L [2:0] $end
$var reg 2 3 n_state_M [1:0] $end
$var reg 2 4 o_LA [1:0] $end
$var reg 2 5 o_LB [1:0] $end
$upscope $end
$scope task init $end
$upscope $end
$scope task resetNCycle $end
$var reg 10 6 i [9:0] $end
$upscope $end
$upscope $end
$enddefinitions $end
#0
$dumpvars
bx 6
bx 5
bx 4
bx 3
bx 2
bx 1
bx 0
x/
bx .
b1011100010111101110110011000110110010000101111011001100111001101101101010111110111010001110010011000010110011001100110011010010110001101011111011011000110100101100111011010000111010000101110011101100110001101100100 -
1,
0+
0*
0)
0(
0'
bx &
bx %
bx $
bx #
bx "
bx !
$end
#5
1+
#10
0+
0,
b1 6
#15
b10100100100010101000100 &
b100011101010010010001010100010101001110 %
b0 3
b101001100110000 $
b101001100110000 #
b10 !
b10 5
b0 "
b0 4
b1 2
0/
b0 1
b0 0
1+
#20
0+
1,
#25
b10110010100010101001100010011000100111101010111 %
b1 "
b1 4
b101001100110001 #
b10 2
b1 0
1+
#30
0+
b0 .
#35
b100011101010010010001010100010101001110 &
b10100100100010101000100 %
b101001100110010 #
b0 !
b0 5
b10 "
b10 4
b11 2
b10 0
1+
#40
b10 2
0+
b1 .
1*
#45
1+
#50
b11 2
0+
b10 .
0*
1(
#55
b10110010100010101001100010011000100111101010111 &
b1 !
b1 5
b101001100110011 #
b0 2
b11 0
1+
#60
0+
b11 .
1)
#65
b10100100100010101000100 &
b100011101010010010001010100010101001110 %
b101001100110000 #
b10 !
b10 5
b0 "
b0 4
b0 0
1+
#70
b1 2
b1 3
0+
b100 .
0)
1'
#75
b10110010100010101001100010011000100111101010111 %
b0 3
b101001100110001 $
b1 "
b1 4
b101001100110001 #
b10 2
1/
b1 1
b1 0
1+
#80
0+
b101 .
1)
1*
0'
#85
b100011101010010010001010100010101001110 &
b10100100100010101000100 %
b101001100110010 #
b0 !
b0 5
b10 "
b10 4
b101001100110000 $
b10 0
0/
b0 1
1+
#90
0+
b110 .
#95
1+
#100
0+
b111 .
0)
#105
1+
#110
b11 2
b1 3
0+
b1000 .
0*
1'
0(
#115
b10110010100010101001100010011000100111101010111 &
b101001100110001 $
b1 !
b1 5
b101001100110011 #
b0 2
1/
b1 1
b11 0
1+
#120
b0 3
0+
b1001 .
0'
1(
#125
b10100100100010101000100 &
b100011101010010010001010100010101001110 %
b101001100110000 #
b10 !
b10 5
b0 "
b0 4
b1 2
b101001100110000 $
b0 0
0/
b0 1
1+
#130
b0 2
0+
b1010 .
1)
1*
#135
1+
#140
b1 2
b1 3
0+
b1011 .
0)
1'
0(
#145
b10110010100010101001100010011000100111101010111 %
b1 "
b1 4
b101001100110001 #
b10 2
b101001100110001 $
b1 0
1/
b1 1
1+
#150
b0 3
0+
b1100 .
1)
0'
1(
#155
b100011101010010010001010100010101001110 &
b10100100100010101000100 %
b101001100110000 $
b101001100110010 #
b0 !
b0 5
b10 "
b10 4
0/
b0 1
b10 0
1+
#160
0+
b1101 .
#165
1+
#170
0+
b1110 .
0(
#175
1+
#180
b11 2
0+
b1111 .
0*
1(
#185
b10110010100010101001100010011000100111101010111 &
b1 !
b1 5
b101001100110011 #
b0 2
b11 0
1+
#190
b1 3
0+
b10000 .
0)
1*
1'
0(
#195
b10100100100010101000100 &
b100011101010010010001010100010101001110 %
b101001100110001 $
b101001100110000 #
b10 !
b10 5
b0 "
b0 4
b1 2
1/
b1 1
b0 0
1+
#200
b0 3
0+
b10001 .
0'
1(
#205
b10110010100010101001100010011000100111101010111 %
b1 "
b1 4
b101001100110001 #
b10 2
b101001100110000 $
b1 0
0/
b0 1
1+
#210
b1 3
0+
b10010 .
1)
0*
1'
0(
#215
b100011101010010010001010100010101001110 &
b10100100100010101000100 %
b101001100110001 $
b101001100110010 #
b0 !
b0 5
b10 "
b10 4
1/
b1 1
b10 0
1+
#220
b0 3
0+
b10011 .
0)
1*
0'
1(
#225
b101001100110000 $
0/
b0 1
1+
#230
b1 3
0+
b10100 .
1'
#235
b0 3
b101001100110001 $
1/
b1 1
1+
#240
b1 3
0+
b10101 .
0*
0(
#245
1+
#250
b0 3
0+
b10110 .
1)
1*
1(
#255
b1 3
b101001100110000 $
0/
b0 1
1+
#260
b11 2
0+
b10111 .
0)
0*
0(
#265
b10110010100010101001100010011000100111101010111 &
b1 !
b1 5
b101001100110011 #
b0 2
b101001100110001 $
b11 0
1/
b1 1
1+
#270
0+
b11000 .
1)
1*
#275
b10100100100010101000100 &
b100011101010010010001010100010101001110 %
b101001100110000 #
b10 !
b10 5
b0 "
b0 4
b0 0
1+
#280
0+
b11001 .
0*
0'
#285
1+
#290
b1 2
b0 3
0+
b11010 .
0)
1*
1(
#295
b10110010100010101001100010011000100111101010111 %
b101001100110000 $
b1 "
b1 4
b101001100110001 #
b10 2
0/
b0 1
b1 0
1+
#300
0+
b11011 .
1)
0(
#305
b100011101010010010001010100010101001110 &
b10100100100010101000100 %
b101001100110010 #
b0 !
b0 5
b10 "
b10 4
b10 0
1+
#310
0+
b11100 .
1(
#315
1+
#320
0+
b11101 .
#325
1+
#330
0+
b11110 .
0)
#335
1+
#340
b11 2
b1 3
0+
b11111 .
0*
1'
#345
b10110010100010101001100010011000100111101010111 &
b1 !
b1 5
b101001100110011 #
b0 3
b0 2
b101001100110001 $
b11 0
1/
b1 1
1+
#350
b1 3
0+
b100000 .
1)
0(
#355
b10100100100010101000100 &
b100011101010010010001010100010101001110 %
b101001100110000 #
b10 !
b10 5
b0 "
b0 4
b0 0
1+
#360
b1 2
0+
b100001 .
0)
0'
#365
b10110010100010101001100010011000100111101010111 %
b1 "
b1 4
b101001100110001 #
b10 2
b1 0
1+
#370
0+
b100010 .
#375
b100011101010010010001010100010101001110 &
b10100100100010101000100 %
b101001100110010 #
b0 !
b0 5
b10 "
b10 4
b10 0
1+
#380
0+
b100011 .
1)
1'
#385
1+
#390
b0 3
0+
b100100 .
1*
0'
1(
#395
b101001100110000 $
0/
b0 1
1+
#400
b1 3
0+
b100101 .
0)
1'
0(
#405
b101001100110001 $
1/
b1 1
1+
#410
b0 3
0+
b100110 .
0*
1(
#415
b1 3
b11 2
b101001100110000 $
0/
b0 1
1+
#420
b10 2
b0 3
0+
b100111 .
1)
1*
0'
#425
1+
#430
b11 2
b1 3
0+
b101000 .
0)
0*
1'
#435
b10110010100010101001100010011000100111101010111 &
b0 3
b101001100110001 $
b1 !
b1 5
b101001100110011 #
b0 2
1/
b1 1
b11 0
1+
#440
0+
b101001 .
1)
#445
b10100100100010101000100 &
b100011101010010010001010100010101001110 %
b101001100110000 #
b10 !
b10 5
b0 "
b0 4
b1 3
b101001100110000 $
b0 0
0/
b0 1
1+
#450
b1 2
b0 3
0+
b101010 .
0)
1*
0'
#455
b10110010100010101001100010011000100111101010111 %
b1 "
b1 4
b101001100110001 #
b10 2
b1 0
1+
#460
b1 3
0+
b101011 .
0*
1'
0(
#465
b100011101010010010001010100010101001110 &
b10100100100010101000100 %
b101001100110010 #
b0 !
b0 5
b10 "
b10 4
b101001100110001 $
b10 0
1/
b1 1
1+
#470
0+
b101100 .
1)
1*
#475
1+
#480
b0 3
0+
b101101 .
0'
1(
#485
b101001100110000 $
0/
b0 1
1+
#490
b1 3
0+
b101110 .
1'
#495
b0 3
b101001100110001 $
1/
b1 1
1+
#500
0+
b101111 .
0)
0*
#505
b1 3
b11 2
b101001100110000 $
0/
b0 1
1+
#510
0+
b110000 .
1)
0(
#515
b10110010100010101001100010011000100111101010111 &
b101001100110001 $
b1 !
b1 5
b101001100110011 #
b0 2
1/
b1 1
b11 0
1+
#520
0+
b110001 .
#525
b10100100100010101000100 &
b100011101010010010001010100010101001110 %
b101001100110000 #
b10 !
b10 5
b0 "
b0 4
b0 0
1+
#530
0+
b110010 .
1*
0'
#535
1+
#540
b1 2
0+
b110011 .
0)
0*
1'
#545
b10110010100010101001100010011000100111101010111 %
b1 "
b1 4
b101001100110001 #
b10 2
b1 0
1+
#550
0+
b110100 .
1)
#555
b100011101010010010001010100010101001110 &
b10100100100010101000100 %
b101001100110010 #
b0 !
b0 5
b10 "
b10 4
b10 0
1+
#560
b0 3
0+
b110101 .
0)
0'
1(
#565
b11 2
b101001100110000 $
0/
b0 1
1+
#570
0+
b110110 .
1)
0(
#575
b10110010100010101001100010011000100111101010111 &
b1 !
b1 5
b101001100110011 #
b0 2
b11 0
1+
#580
0+
b110111 .
#585
b10100100100010101000100 &
b100011101010010010001010100010101001110 %
b101001100110000 #
b10 !
b10 5
b0 "
b0 4
b0 0
1+
#590
0+
b111000 .
1(
#595
1+
#600
b1 3
0+
b111001 .
1'
#605
b0 3
b101001100110001 $
1/
b1 1
1+
#610
b1 2
b1 3
0+
b111010 .
0)
1*
0(
#615
b10110010100010101001100010011000100111101010111 %
b1 "
b1 4
b101001100110001 #
b10 2
b1 0
1+
#620
0+
b111011 .
#625
b100011101010010010001010100010101001110 &
b10100100100010101000100 %
b101001100110010 #
b0 !
b0 5
b10 "
b10 4
b10 0
1+
#630
0+
b111100 .
1)
#635
1+
#640
0+
b111101 .
0'
#645
1+
#650
0+
b111110 .
0*
1'
#655
1+
#660
b0 3
0+
b111111 .
1(
#665
b1 3
b11 2
b101001100110000 $
0/
b0 1
1+
#670
b0 3
0+
b1000000 .
0)
0'
#675
b10110010100010101001100010011000100111101010111 &
b1 !
b1 5
b101001100110011 #
b0 2
b11 0
1+
#680
0+
b1000001 .
1*
#685
b10100100100010101000100 &
b100011101010010010001010100010101001110 %
b101001100110000 #
b10 !
b10 5
b0 "
b0 4
b1 2
b0 0
1+
#690
b0 2
b1 3
0+
b1000010 .
1)
1'
#695
b0 3
b101001100110001 $
1/
b1 1
1+
#700
0+
b1000011 .
0*
#705
b1 3
b101001100110000 $
0/
b0 1
1+
#710
0+
b1000100 .
0(
#715
b101001100110001 $
1/
b1 1
1+
#720
0+
b1000101 .
1*
#725
1+
#730
b1 2
b0 3
0+
b1000110 .
0)
0'
1(
#735
b10110010100010101001100010011000100111101010111 %
b101001100110000 $
b1 "
b1 4
b101001100110001 #
b10 2
0/
b0 1
b1 0
1+
#740
0+
b1000111 .
0*
#745
b100011101010010010001010100010101001110 &
b10100100100010101000100 %
b101001100110010 #
b0 !
b0 5
b10 "
b10 4
b11 2
b10 0
1+
#750
0+
b1001000 .
1)
#755
b10110010100010101001100010011000100111101010111 &
b1 !
b1 5
b101001100110011 #
b0 2
b11 0
1+
#760
b1 3
0+
b1001001 .
0)
1'
0(
#765
b10100100100010101000100 &
b100011101010010010001010100010101001110 %
b101001100110000 #
b10 !
b10 5
b0 "
b0 4
b1 2
b101001100110001 $
b0 0
1/
b1 1
1+
#770
b0 2
0+
b1001010 .
1)
1*
0'
#775
1+
#780
b0 3
0+
b1001011 .
1'
1(
#785
b1 3
b101001100110000 $
0/
b0 1
1+
#790
0+
b1001100 .
#795
b0 3
b101001100110001 $
1/
b1 1
1+
#800
b1 3
0+
b1001101 .
0*
0'
0(
#805
1+
#810
b1 2
b0 3
0+
b1001110 .
0)
1*
1'
1(
#815
b10110010100010101001100010011000100111101010111 %
b1 3
b101001100110000 $
b1 "
b1 4
b101001100110001 #
b10 2
0/
b0 1
b1 0
1+
#820
0+
b1001111 .
1)
#825
b100011101010010010001010100010101001110 &
b10100100100010101000100 %
b101001100110010 #
b0 !
b0 5
b10 "
b10 4
b0 3
b101001100110001 $
b10 0
1/
b1 1
1+
#830
b1 3
0+
b1010000 .
0'
0(
#835
1+
#840
b0 3
0+
b1010001 .
0*
1'
1(
#845
b1 3
b11 2
b101001100110000 $
0/
b0 1
1+
#850
b0 3
0+
b1010010 .
0'
#855
b10110010100010101001100010011000100111101010111 &
b1 !
b1 5
b101001100110011 #
b0 2
b11 0
1+
#860
0+
b1010011 .
#865
b10100100100010101000100 &
b100011101010010010001010100010101001110 %
b101001100110000 #
b10 !
b10 5
b0 "
b0 4
b0 0
1+
#870
b1 2
0+
b1010100 .
0)
0(
#875
b10110010100010101001100010011000100111101010111 %
b1 "
b1 4
b101001100110001 #
b10 2
b1 0
1+
#880
b1 3
0+
b1010101 .
1*
1'
1(
#885
b100011101010010010001010100010101001110 &
b10100100100010101000100 %
b101001100110010 #
b0 !
b0 5
b10 "
b10 4
b0 3
b101001100110001 $
b10 0
1/
b1 1
1+
#890
0+
b1010110 .
0*
0'
#895
b11 2
b101001100110000 $
0/
b0 1
1+
#900
b10 2
b1 3
0+
b1010111 .
1*
1'
0(
#905
b101001100110001 $
1/
b1 1
1+
#910
0+
b1011000 .
1)
0'
#915
1+
#920
0+
b1011001 .
0)
0*
1'
#925
1+
#930
0+
b1011010 .
1)
0'
#935
1+
#940
b0 3
0+
b1011011 .
0)
1*
1'
1(
#945
b1 3
b101001100110000 $
0/
b0 1
1+
#950
b0 3
0+
b1011100 .
1)
0'
#955
1+
#960
b11 2
b1 3
0+
b1011101 .
0)
0*
1'
0(
#965
b10110010100010101001100010011000100111101010111 &
b1 !
b1 5
b101001100110011 #
b0 2
b101001100110001 $
b11 0
1/
b1 1
1+
#970
0+
b1011110 .
1)
1*
#975
b10100100100010101000100 &
b100011101010010010001010100010101001110 %
b101001100110000 #
b10 !
b10 5
b0 "
b0 4
b0 0
1+
#980
b0 3
0+
b1011111 .
0'
1(
#985
b101001100110000 $
0/
b0 1
1+
#990
0+
b1100000 .
0*
#995
1+
#1000
b1 3
0+
b1100001 .
1*
1'
#1005
b0 3
b101001100110001 $
1/
b1 1
1+
#1010
b1 2
0+
b1100010 .
0)
0*
#1015
b10110010100010101001100010011000100111101010111 %
b1 3
b101001100110000 $
b1 "
b1 4
b101001100110001 #
b10 2
0/
b0 1
b1 0
1+
#1020
b0 3
0+
b1100011 .
1*
0'
#1025
b100011101010010010001010100010101001110 &
b10100100100010101000100 %
b101001100110010 #
b0 !
b0 5
b10 "
b10 4
b10 0
1+
#1030
b11 2
0+
b1100100 .
1)
0*
0(
#1035
b10110010100010101001100010011000100111101010111 &
b1 !
b1 5
b101001100110011 #
b0 2
b11 0
1+
