05_fsm_traffic_light/vcd/fsm_traffic_light.vcd
$date
	Thu Jul  4 16:08:47 2024
$end
$version
	Icarus Verilog
$end
$timescale
	1s
$end
$scope module fsm_traffic_light_tb $end
$var wire 2 ! o_LB [1:0] $end
$var wire 2 " o_LA [1:0] $end
$var reg 128 # L_State [127:0] $end
$var reg 128 $ M_State [127:0] $end
$var reg 128 % color_LA [127:0] $end
$var reg 128 & color_LB [127:0] $end
$var reg 1 ' i_P $end
$var reg 1 ( i_R $end
$var reg 1 ) i_TA $end
$var reg 1 * i_TB $end
$var reg 1 + i_clk $end
$var reg 1 , i_rstn $end
$var reg 256 - vcd_file [255:0] $end
$var integer 32 . i [31:0] $end
$scope module u_fsm_traffic_light $end
$var wire 1 ' i_P $end
$var wire 1 ( i_R $end
$var wire 1 ) i_TA $end
$var wire 1 * i_TB $end
$var wire 1 + i_clk $end
$var wire 1 , i_rstn $end
$var wire 1 / M $end
$var reg 3 0 c_state_L [2:0] $end
$var reg 2 1 c_state_M [1:0] $end
$var reg 3 2 n_state_L [2:0] $end
$var reg 2 3 n_state_M [1:0] $end
$var reg 2 4 o_LA [1:0] $end
$var reg 2 5 o_LB [1:0] $end
$upscope $end
$scope task init $end
$upscope $end
$scope task resetNCycle $end
$var reg 10 6 i [9:0] $end
$upscope $end
$upscope $end
$enddefinitions $end
#0
$dumpvars
bx 6
bx 5
bx 4
bx 3
bx 2
bx 1
bx 0
x/
bx .
b1011100010111101110110011000110110010000101111011001100111001101101101010111110111010001110010011000010110011001100110011010010110001101011111011011000110100101100111011010000111010000101110011101100110001101100100 -
1,
0+
0*
1)
0(
0'
bx &
bx %
bx $
bx #
bx "
bx !
$end
#5
1+
#10
0+
0,
b1 6
#15
b10100100100010101000100 &
b100011101010010010001010100010101001110 %
b0 3
b101001100110000 $
b101001100110000 #
b10 !
b10 5
b0 "
b0 4
b0 2
0/
b0 1
b0 0
1+
#20
0+
1,
#25
1+
#30
0+
b0 .
#35
1+
#40
0+
#45
1+
#50
b1 2
0+
b1 .
0)
1*
#55
b10110010100010101001100010011000100111101010111 %
b1 "
b1 4
b101001100110001 #
b10 2
b1 0
1+
#60
0+
#65
b100011101010010010001010100010101001110 &
b10100100100010101000100 %
b101001100110010 #
b0 !
b0 5
b10 "
b10 4
b10 0
1+
#70
b11 2
0+
b10 .
0*
1(
#75
b10110010100010101001100010011000100111101010111 &
b1 !
b1 5
b101001100110011 #
b0 2
b11 0
1+
#80
0+
#85
b10100100100010101000100 &
b100011101010010010001010100010101001110 %
b101001100110000 #
b10 !
b10 5
b0 "
b0 4
b1 2
b0 0
1+
#90
b0 2
0+
b11 .
1)
#95
1+
#100
0+
#105
1+
#110
b1 2
b1 3
0+
b100 .
0)
1'
#115
b10110010100010101001100010011000100111101010111 %
b0 3
b101001100110001 $
b1 "
b1 4
b101001100110001 #
b10 2
1/
b1 1
b1 0
1+
#120
0+
#125
b100011101010010010001010100010101001110 &
b10100100100010101000100 %
b101001100110010 #
b0 !
b0 5
b10 "
b10 4
b1 3
b11 2
b101001100110000 $
b10 0
0/
b0 1
1+
#130
b10 2
b0 3
0+
b101 .
1)
1*
0'
#135
1+
#140
0+
#145
1+
#150
0+
b110 .
#155
1+
#160
0+
#165
1+
#170
0+
b111 .
0)
#175
1+
#180
0+
#185
1+
#190
b11 2
b1 3
0+
b1000 .
0*
1'
0(
#195
b10110010100010101001100010011000100111101010111 &
b101001100110001 $
b1 !
b1 5
b101001100110011 #
b0 2
1/
b1 1
b11 0
1+
#200
0+
#205
b10100100100010101000100 &
b100011101010010010001010100010101001110 %
b101001100110000 #
b10 !
b10 5
b0 "
b0 4
b1 2
b0 0
1+
#210
b0 3
0+
b1001 .
0'
1(
#215
b10110010100010101001100010011000100111101010111 %
b101001100110000 $
b1 "
b1 4
b101001100110001 #
b10 2
0/
b0 1
b1 0
1+
#220
0+
#225
b100011101010010010001010100010101001110 &
b10100100100010101000100 %
b101001100110010 #
b0 !
b0 5
b10 "
b10 4
b11 2
b10 0
1+
#230
b10 2
0+
b1010 .
1)
1*
#235
1+
#240
0+
#245
1+
#250
b1 3
0+
b1011 .
0)
1'
0(
#255
b101001100110001 $
1/
b1 1
1+
#260
0+
#265
1+
#270
b0 3
0+
b1100 .
1)
0'
1(
#275
b101001100110000 $
0/
b0 1
1+
#280
0+
#285
1+
#290
0+
b1101 .
#295
1+
#300
0+
#305
1+
#310
0+
b1110 .
0(
#315
1+
#320
0+
#325
1+
#330
b11 2
0+
b1111 .
0*
1(
#335
b10110010100010101001100010011000100111101010111 &
b1 !
b1 5
b101001100110011 #
b0 2
b11 0
1+
#340
0+
#345
b10100100100010101000100 &
b100011101010010010001010100010101001110 %
b101001100110000 #
b10 !
b10 5
b0 "
b0 4
b0 0
1+
#350
b1 2
b1 3
0+
b10000 .
0)
1*
1'
0(
#355
b10110010100010101001100010011000100111101010111 %
b101001100110001 $
b1 "
b1 4
b101001100110001 #
b10 2
1/
b1 1
b1 0
1+
#360
0+
#365
b100011101010010010001010100010101001110 &
b10100100100010101000100 %
b101001100110010 #
b0 !
b0 5
b10 "
b10 4
b10 0
1+
#370
b0 3
0+
b10001 .
0'
1(
#375
b101001100110000 $
0/
b0 1
1+
#380
0+
#385
1+
#390
b11 2
b1 3
0+
b10010 .
1)
0*
1'
0(
#395
b10110010100010101001100010011000100111101010111 &
b101001100110001 $
b1 !
b1 5
b101001100110011 #
b0 2
1/
b1 1
b11 0
1+
#400
0+
#405
b10100100100010101000100 &
b100011101010010010001010100010101001110 %
b101001100110000 #
b10 !
b10 5
b0 "
b0 4
b0 0
1+
#410
b1 2
b0 3
0+
b10011 .
0)
1*
0'
1(
#415
b10110010100010101001100010011000100111101010111 %
b101001100110000 $
b1 "
b1 4
b101001100110001 #
b10 2
0/
b0 1
b1 0
1+
#420
0+
#425
b100011101010010010001010100010101001110 &
b10100100100010101000100 %
b101001100110010 #
b0 !
b0 5
b10 "
b10 4
b10 0
1+
#430
b1 3
0+
b10100 .
1'
#435
b0 3
b101001100110001 $
1/
b1 1
1+
#440
0+
#445
b1 3
b101001100110000 $
0/
b0 1
1+
#450
b11 2
0+
b10101 .
0*
0(
#455
b10110010100010101001100010011000100111101010111 &
b101001100110001 $
b1 !
b1 5
b101001100110011 #
b0 2
1/
b1 1
b11 0
1+
#460
0+
#465
b10100100100010101000100 &
b100011101010010010001010100010101001110 %
b101001100110000 #
b10 !
b10 5
b0 "
b0 4
b1 2
b0 0
1+
#470
b0 2
b0 3
0+
b10110 .
1)
1*
1(
#475
b1 3
b101001100110000 $
0/
b0 1
1+
#480
0+
#485
b0 3
b101001100110001 $
1/
b1 1
1+
#490
b1 2
b1 3
0+
b10111 .
0)
0*
0(
#495
b10110010100010101001100010011000100111101010111 %
b1 "
b1 4
b101001100110001 #
b10 2
b1 0
1+
#500
0+
#505
b100011101010010010001010100010101001110 &
b10100100100010101000100 %
b101001100110010 #
b0 !
b0 5
b10 "
b10 4
b10 0
1+
#510
0+
b11000 .
1)
1*
#515
1+
#520
0+
#525
1+
#530
0+
b11001 .
0*
0'
#535
1+
#540
0+
#545
1+
#550
b0 3
0+
b11010 .
0)
1*
1(
#555
b101001100110000 $
0/
b0 1
1+
#560
0+
#565
1+
#570
0+
b11011 .
1)
0(
#575
1+
#580
0+
#585
1+
#590
0+
b11100 .
1(
#595
1+
#600
0+
#605
1+
#610
0+
b11101 .
#615
1+
#620
0+
#625
1+
#630
0+
b11110 .
0)
#635
1+
#640
0+
#645
1+
#650
b11 2
b1 3
0+
b11111 .
0*
1'
#655
b10110010100010101001100010011000100111101010111 &
b0 3
b101001100110001 $
b1 !
b1 5
b101001100110011 #
b0 2
1/
b1 1
b11 0
1+
#660
0+
#665
b10100100100010101000100 &
b100011101010010010001010100010101001110 %
b101001100110000 #
b10 !
b10 5
b0 "
b0 4
b1 3
b1 2
b101001100110000 $
b0 0
0/
b0 1
1+
#670
b0 2
0+
b100000 .
1)
0(
#675
b101001100110001 $
1/
b1 1
1+
#680
0+
#685
1+
#690
b1 2
0+
b100001 .
0)
0'
#695
b10110010100010101001100010011000100111101010111 %
b1 "
b1 4
b101001100110001 #
b10 2
b1 0
1+
#700
0+
#705
b100011101010010010001010100010101001110 &
b10100100100010101000100 %
b101001100110010 #
b0 !
b0 5
b10 "
b10 4
b10 0
1+
#710
0+
b100010 .
#715
1+
#720
0+
#725
1+
#730
0+
b100011 .
1)
1'
#735
1+
#740
0+
#745
1+
#750
b0 3
0+
b100100 .
1*
0'
1(
#755
b101001100110000 $
0/
b0 1
1+
#760
0+
#765
1+
#770
b1 3
0+
b100101 .
0)
1'
0(
#775
b101001100110001 $
1/
b1 1
1+
#780
0+
#785
1+
#790
b0 3
0+
b100110 .
0*
1(
#795
b1 3
b11 2
b101001100110000 $
0/
b0 1
1+
#800
0+
#805
b10110010100010101001100010011000100111101010111 &
b1 !
b1 5
b101001100110011 #
b0 3
b0 2
b101001100110001 $
b11 0
1/
b1 1
1+
#810
0+
b100111 .
1)
1*
0'
#815
b10100100100010101000100 &
b100011101010010010001010100010101001110 %
b101001100110000 $
b101001100110000 #
b10 !
b10 5
b0 "
b0 4
0/
b0 1
b0 0
1+
#820
0+
#825
1+
#830
b1 2
b1 3
0+
b101000 .
0)
0*
1'
#835
b10110010100010101001100010011000100111101010111 %
b0 3
b101001100110001 $
b1 "
b1 4
b101001100110001 #
b10 2
1/
b1 1
b1 0
1+
#840
0+
#845
b100011101010010010001010100010101001110 &
b10100100100010101000100 %
b101001100110010 #
b0 !
b0 5
b10 "
b10 4
b1 3
b11 2
b101001100110000 $
b10 0
0/
b0 1
1+
#850
0+
b101001 .
1)
#855
b10110010100010101001100010011000100111101010111 &
b0 3
b101001100110001 $
b1 !
b1 5
b101001100110011 #
b0 2
1/
b1 1
b11 0
1+
#860
0+
#865
b10100100100010101000100 &
b100011101010010010001010100010101001110 %
b101001100110000 #
b10 !
b10 5
b0 "
b0 4
b1 3
b101001100110000 $
b0 0
0/
b0 1
1+
#870
b1 2
b0 3
0+
b101010 .
0)
1*
0'
#875
b10110010100010101001100010011000100111101010111 %
b1 "
b1 4
b101001100110001 #
b10 2
b1 0
1+
#880
0+
#885
b100011101010010010001010100010101001110 &
b10100100100010101000100 %
b101001100110010 #
b0 !
b0 5
b10 "
b10 4
b10 0
1+
#890
b11 2
b1 3
0+
b101011 .
0*
1'
0(
#895
b10110010100010101001100010011000100111101010111 &
b101001100110001 $
b1 !
b1 5
b101001100110011 #
b0 2
1/
b1 1
b11 0
1+
#900
0+
#905
b10100100100010101000100 &
b100011101010010010001010100010101001110 %
b101001100110000 #
b10 !
b10 5
b0 "
b0 4
b1 2
b0 0
1+
#910
b0 2
0+
b101100 .
1)
1*
#915
1+
#920
0+
#925
1+
#930
b0 3
0+
b101101 .
0'
1(
#935
b101001100110000 $
0/
b0 1
1+
#940
0+
#945
1+
#950
b1 3
0+
b101110 .
1'
#955
b0 3
b101001100110001 $
1/
b1 1
1+
#960
0+
#965
b1 3
b101001100110000 $
0/
b0 1
1+
#970
b1 2
0+
b101111 .
0)
0*
#975
b10110010100010101001100010011000100111101010111 %
b0 3
b101001100110001 $
b1 "
b1 4
b101001100110001 #
b10 2
1/
b1 1
b1 0
1+
#980
0+
#985
b100011101010010010001010100010101001110 &
b10100100100010101000100 %
b101001100110010 #
b0 !
b0 5
b10 "
b10 4
b1 3
b11 2
b101001100110000 $
b10 0
0/
b0 1
1+
#990
0+
b110000 .
1)
0(
#995
b10110010100010101001100010011000100111101010111 &
b101001100110001 $
b1 !
b1 5
b101001100110011 #
b0 2
1/
b1 1
b11 0
1+
#1000
0+
#1005
b10100100100010101000100 &
b100011101010010010001010100010101001110 %
b101001100110000 #
b10 !
b10 5
b0 "
b0 4
b0 0
1+
#1010
0+
b110001 .
#1015
1+
#1020
0+
#1025
1+
#1030
0+
b110010 .
1*
0'
#1035
1+
#1040
0+
#1045
1+
#1050
b1 2
0+
b110011 .
0)
0*
1'
#1055
b10110010100010101001100010011000100111101010111 %
b1 "
b1 4
b101001100110001 #
b10 2
b1 0
1+
#1060
0+
#1065
b100011101010010010001010100010101001110 &
b10100100100010101000100 %
b101001100110010 #
b0 !
b0 5
b10 "
b10 4
b10 0
1+
#1070
0+
b110100 .
1)
#1075
1+
#1080
0+
#1085
1+
#1090
b0 3
0+
b110101 .
0)
0'
1(
#1095
b11 2
b101001100110000 $
0/
b0 1
1+
#1100
0+
#1105
b10110010100010101001100010011000100111101010111 &
b1 !
b1 5
b101001100110011 #
b0 2
b11 0
1+
#1110
0+
b110110 .
1)
0(
#1115
b10100100100010101000100 &
b100011101010010010001010100010101001110 %
b101001100110000 #
b10 !
b10 5
b0 "
b0 4
b0 0
1+
#1120
0+
#1125
1+
#1130
0+
b110111 .
#1135
1+
#1140
0+
#1145
1+
#1150
0+
b111000 .
1(
#1155
1+
#1160
0+
#1165
1+
#1170
b1 3
0+
b111001 .
1'
#1175
b0 3
b101001100110001 $
1/
b1 1
1+
#1180
0+
#1185
b1 3
b101001100110000 $
0/
b0 1
1+
#1190
b1 2
0+
b111010 .
0)
1*
0(
#1195
b10110010100010101001100010011000100111101010111 %
b101001100110001 $
b1 "
b1 4
b101001100110001 #
b10 2
1/
b1 1
b1 0
1+
#1200
0+
#1205
b100011101010010010001010100010101001110 &
b10100100100010101000100 %
b101001100110010 #
b0 !
b0 5
b10 "
b10 4
b10 0
1+
#1210
0+
b111011 .
#1215
1+
#1220
0+
#1225
1+
#1230
0+
b111100 .
1)
#1235
1+
#1240
0+
#1245
1+
#1250
0+
b111101 .
0'
#1255
1+
#1260
0+
#1265
1+
#1270
0+
b111110 .
0*
1'
#1275
1+
#1280
0+
#1285
1+
#1290
b0 3
0+
b111111 .
1(
#1295
b1 3
b11 2
b101001100110000 $
0/
b0 1
1+
#1300
0+
#1305
b10110010100010101001100010011000100111101010111 &
b1 !
b1 5
b101001100110011 #
b0 3
b0 2
b101001100110001 $
b11 0
1/
b1 1
1+
#1310
0+
b1000000 .
0)
0'
#1315
b10100100100010101000100 &
b100011101010010010001010100010101001110 %
b101001100110000 $
b101001100110000 #
b10 !
b10 5
b0 "
b0 4
b1 2
0/
b0 1
b0 0
1+
#1320
0+
#1325
b10110010100010101001100010011000100111101010111 %
b1 "
b1 4
b101001100110001 #
b10 2
b1 0
1+
#1330
0+
b1000001 .
1*
#1335
b100011101010010010001010100010101001110 &
b10100100100010101000100 %
b101001100110010 #
b0 !
b0 5
b10 "
b10 4
b10 0
1+
#1340
0+
#1345
1+
#1350
b1 3
0+
b1000010 .
1)
1'
#1355
b0 3
b101001100110001 $
1/
b1 1
1+
#1360
0+
#1365
b1 3
b101001100110000 $
0/
b0 1
1+
#1370
b11 2
0+
b1000011 .
0*
#1375
b10110010100010101001100010011000100111101010111 &
b0 3
b101001100110001 $
b1 !
b1 5
b101001100110011 #
b0 2
1/
b1 1
b11 0
1+
#1380
0+
#1385
b10100100100010101000100 &
b100011101010010010001010100010101001110 %
b101001100110000 #
b10 !
b10 5
b0 "
b0 4
b1 3
b101001100110000 $
b0 0
0/
b0 1
1+
#1390
0+
b1000100 .
0(
#1395
b101001100110001 $
1/
b1 1
1+
#1400
0+
#1405
1+
#1410
0+
b1000101 .
1*
#1415
1+
#1420
0+
#1425
1+
#1430
b1 2
b0 3
0+
b1000110 .
0)
0'
1(
#1435
b10110010100010101001100010011000100111101010111 %
b101001100110000 $
b1 "
b1 4
b101001100110001 #
b10 2
0/
b0 1
b1 0
1+
#1440
0+
#1445
b100011101010010010001010100010101001110 &
b10100100100010101000100 %
b101001100110010 #
b0 !
b0 5
b10 "
b10 4
b10 0
1+
#1450
b11 2
0+
b1000111 .
0*
#1455
b10110010100010101001100010011000100111101010111 &
b1 !
b1 5
b101001100110011 #
b0 2
b11 0
1+
#1460
0+
#1465
b10100100100010101000100 &
b100011101010010010001010100010101001110 %
b101001100110000 #
b10 !
b10 5
b0 "
b0 4
b1 2
b0 0
1+
#1470
b0 2
0+
b1001000 .
1)
#1475
1+
#1480
0+
#1485
1+
#1490
b1 2
b1 3
0+
b1001001 .
0)
1'
0(
#1495
b10110010100010101001100010011000100111101010111 %
b101001100110001 $
b1 "
b1 4
b101001100110001 #
b10 2
1/
b1 1
b1 0
1+
#1500
0+
#1505
b100011101010010010001010100010101001110 &
b10100100100010101000100 %
b101001100110010 #
b0 !
b0 5
b10 "
b10 4
b10 0
1+
#1510
0+
b1001010 .
1)
1*
0'
#1515
1+
#1520
0+
#1525
1+
#1530
b0 3
0+
b1001011 .
1'
1(
#1535
b1 3
b101001100110000 $
0/
b0 1
1+
#1540
0+
#1545
b0 3
b101001100110001 $
1/
b1 1
1+
#1550
0+
b1001100 .
#1555
b1 3
b101001100110000 $
0/
b0 1
1+
#1560
0+
#1565
b0 3
b101001100110001 $
1/
b1 1
1+
#1570
b1 3
0+
b1001101 .
0*
0'
0(
#1575
1+
#1580
0+
#1585
1+
#1590
b0 3
0+
b1001110 .
0)
1*
1'
1(
#1595
b1 3
b101001100110000 $
0/
b0 1
1+
#1600
0+
#1605
b0 3
b101001100110001 $
1/
b1 1
1+
#1610
0+
b1001111 .
1)
#1615
b1 3
b101001100110000 $
0/
b0 1
1+
#1620
0+
#1625
b0 3
b101001100110001 $
1/
b1 1
1+
#1630
b1 3
0+
b1010000 .
0'
0(
#1635
1+
#1640
0+
#1645
1+
#1650
b0 3
0+
b1010001 .
0*
1'
1(
#1655
b1 3
b11 2
b101001100110000 $
0/
b0 1
1+
#1660
0+
#1665
b10110010100010101001100010011000100111101010111 &
b1 !
b1 5
b101001100110011 #
b0 3
b0 2
b101001100110001 $
b11 0
1/
b1 1
1+
#1670
0+
b1010010 .
0'
#1675
b10100100100010101000100 &
b100011101010010010001010100010101001110 %
b101001100110000 $
b101001100110000 #
b10 !
b10 5
b0 "
b0 4
0/
b0 1
b0 0
1+
#1680
0+
#1685
1+
#1690
0+
b1010011 .
#1695
1+
#1700
0+
#1705
1+
#1710
b1 2
0+
b1010100 .
0)
0(
#1715
b10110010100010101001100010011000100111101010111 %
b1 "
b1 4
b101001100110001 #
b10 2
b1 0
1+
#1720
0+
#1725
b100011101010010010001010100010101001110 &
b10100100100010101000100 %
b101001100110010 #
b0 !
b0 5
b10 "
b10 4
b11 2
b10 0
1+
#1730
b10 2
b1 3
0+
b1010101 .
1*
1'
1(
#1735
b0 3
b101001100110001 $
1/
b1 1
1+
#1740
0+
#1745
b1 3
b101001100110000 $
0/
b0 1
1+
#1750
b11 2
b0 3
0+
b1010110 .
0*
0'
#1755
b10110010100010101001100010011000100111101010111 &
b1 !
b1 5
b101001100110011 #
b0 2
b11 0
1+
#1760
0+
#1765
b10100100100010101000100 &
b100011101010010010001010100010101001110 %
b101001100110000 #
b10 !
b10 5
b0 "
b0 4
b1 2
b0 0
1+
#1770
b1 3
0+
b1010111 .
1*
1'
0(
#1775
b10110010100010101001100010011000100111101010111 %
b101001100110001 $
b1 "
b1 4
b101001100110001 #
b10 2
1/
b1 1
b1 0
1+
#1780
0+
#1785
b100011101010010010001010100010101001110 &
b10100100100010101000100 %
b101001100110010 #
b0 !
b0 5
b10 "
b10 4
b10 0
1+
#1790
0+
b1011000 .
1)
0'
#1795
1+
#1800
0+
#1805
1+
#1810
0+
b1011001 .
0)
0*
1'
#1815
1+
#1820
0+
#1825
1+
#1830
0+
b1011010 .
1)
0'
#1835
1+
#1840
0+
#1845
1+
#1850
b0 3
0+
b1011011 .
0)
1*
1'
1(
#1855
b1 3
b101001100110000 $
0/
b0 1
1+
#1860
0+
#1865
b0 3
b101001100110001 $
1/
b1 1
1+
#1870
0+
b1011100 .
1)
0'
#1875
b101001100110000 $
0/
b0 1
1+
#1880
0+
#1885
1+
#1890
b11 2
b1 3
0+
b1011101 .
0)
0*
1'
0(
#1895
b10110010100010101001100010011000100111101010111 &
b101001100110001 $
b1 !
b1 5
b101001100110011 #
b0 2
1/
b1 1
b11 0
1+
#1900
0+
#1905
b10100100100010101000100 &
b100011101010010010001010100010101001110 %
b101001100110000 #
b10 !
b10 5
b0 "
b0 4
b1 2
b0 0
1+
#1910
b0 2
0+
b1011110 .
1)
1*
#1915
1+
#1920
0+
#1925
1+
#1930
b0 3
0+
b1011111 .
0'
1(
#1935
b101001100110000 $
0/
b0 1
1+
#1940
0+
#1945
1+
#1950
0+
b1100000 .
0*
#1955
1+
#1960
0+
#1965
1+
#1970
b1 3
0+
b1100001 .
1*
1'
#1975
b0 3
b101001100110001 $
1/
b1 1
1+
#1980
0+
#1985
b1 3
b101001100110000 $
0/
b0 1
1+
#1990
b1 2
0+
b1100010 .
0)
0*
#1995
b10110010100010101001100010011000100111101010111 %
b0 3
b101001100110001 $
b1 "
b1 4
b101001100110001 #
b10 2
1/
b1 1
b1 0
1+
#2000
0+
#2005
b100011101010010010001010100010101001110 &
b10100100100010101000100 %
b101001100110010 #
b0 !
b0 5
b10 "
b10 4
b1 3
b11 2
b101001100110000 $
b10 0
0/
b0 1
1+
#2010
b10 2
b0 3
0+
b1100011 .
1*
0'
#2015
1+
#2020
0+
#2025
1+
#2030
b11 2
0+
b1100100 .
1)
0*
0(
#2035
b10110010100010101001100010011000100111101010111 &
b1 !
b1 5
b101001100110011 #
b0 2
b11 0
1+
